<svg width="1920" height="1080" viewBox="0 0 1920 1080" fill="none" xmlns="http://www.w3.org/2000/svg">
<g clip-path="url(#clip0_1249_20424)">
<rect width="1920" height="1080" fill="url(#paint0_linear_1249_20424)"/>
<g filter="url(#filter0_f_1249_20424)">
<ellipse cx="2132" cy="1238" rx="627" ry="581" fill="#404BE3"/>
</g>
<g filter="url(#filter1_f_1249_20424)">
<ellipse rx="1012.59" ry="284.274" transform="matrix(0.99415 -0.10801 -0.22748 -0.973783 1060.33 1183.19)" fill="url(#paint1_linear_1249_20424)"/>
</g>
<g filter="url(#filter2_f_1249_20424)">
<ellipse cy="1374.5" rx="763" ry="444.5" fill="url(#paint2_linear_1249_20424)"/>
</g>
<g filter="url(#filter3_f_1249_20424)">
<ellipse rx="386.045" ry="206.382" transform="matrix(0.941041 0.338292 -0.611559 0.791199 1920.17 1226.52)" fill="#39BEFF"/>
</g>
<g filter="url(#filter4_f_1249_20424)">
<ellipse rx="656.172" ry="183.833" transform="matrix(0.999656 -0.0262236 0.0563147 0.998413 1248.58 1351.09)" fill="#151531"/>
</g>
<g filter="url(#filter5_f_1249_20424)">
<ellipse rx="176.915" ry="349.5" transform="matrix(0.956709 -0.291045 0.547403 0.836869 23.2412 851.976)" fill="#C051FF" fill-opacity="0.5"/>
</g>
<ellipse cx="960" cy="598" rx="706" ry="598" fill="url(#paint3_radial_1249_20424)"/>
</g>
<defs>
<filter id="filter0_f_1249_20424" x="1105" y="257" width="2054" height="1962" filterUnits="userSpaceOnUse" color-interpolation-filters="sRGB">
<feFlood flood-opacity="0" result="BackgroundImageFix"/>
<feBlend mode="normal" in="SourceGraphic" in2="BackgroundImageFix" result="shape"/>
<feGaussianBlur stdDeviation="200" result="effect1_foregroundBlur_1249_20424"/>
</filter>
<filter id="filter1_f_1249_20424" x="-248.444" y="585.468" width="2617.56" height="1195.45" filterUnits="userSpaceOnUse" color-interpolation-filters="sRGB">
<feFlood flood-opacity="0" result="BackgroundImageFix"/>
<feBlend mode="normal" in="SourceGraphic" in2="BackgroundImageFix" result="shape"/>
<feGaussianBlur stdDeviation="150" result="effect1_foregroundBlur_1249_20424"/>
</filter>
<filter id="filter2_f_1249_20424" x="-1063" y="630" width="2126" height="1489" filterUnits="userSpaceOnUse" color-interpolation-filters="sRGB">
<feFlood flood-opacity="0" result="BackgroundImageFix"/>
<feBlend mode="normal" in="SourceGraphic" in2="BackgroundImageFix" result="shape"/>
<feGaussianBlur stdDeviation="150" result="effect1_foregroundBlur_1249_20424"/>
</filter>
<filter id="filter3_f_1249_20424" x="1285.48" y="767.427" width="1269.38" height="918.195" filterUnits="userSpaceOnUse" color-interpolation-filters="sRGB">
<feFlood flood-opacity="0" result="BackgroundImageFix"/>
<feBlend mode="normal" in="SourceGraphic" in2="BackgroundImageFix" result="shape"/>
<feGaussianBlur stdDeviation="125" result="effect1_foregroundBlur_1249_20424"/>
</filter>
<filter id="filter4_f_1249_20424" x="442.547" y="1016.73" width="1612.06" height="668.717" filterUnits="userSpaceOnUse" color-interpolation-filters="sRGB">
<feFlood flood-opacity="0" result="BackgroundImageFix"/>
<feBlend mode="normal" in="SourceGraphic" in2="BackgroundImageFix" result="shape"/>
<feGaussianBlur stdDeviation="75" result="effect1_foregroundBlur_1249_20424"/>
</filter>
<filter id="filter5_f_1249_20424" x="-532.203" y="254.943" width="1110.89" height="1194.07" filterUnits="userSpaceOnUse" color-interpolation-filters="sRGB">
<feFlood flood-opacity="0" result="BackgroundImageFix"/>
<feBlend mode="normal" in="SourceGraphic" in2="BackgroundImageFix" result="shape"/>
<feGaussianBlur stdDeviation="150" result="effect1_foregroundBlur_1249_20424"/>
</filter>
<linearGradient id="paint0_linear_1249_20424" x1="960" y1="0" x2="960" y2="1080" gradientUnits="userSpaceOnUse">
<stop stop-color="#131328"/>
<stop offset="1" stop-color="#333253"/>
</linearGradient>
<linearGradient id="paint1_linear_1249_20424" x1="1012.59" y1="0" x2="1012.59" y2="568.548" gradientUnits="userSpaceOnUse">
<stop stop-color="#00C2FF" stop-opacity="0"/>
<stop offset="1" stop-color="#FF29C3"/>
</linearGradient>
<linearGradient id="paint2_linear_1249_20424" x1="-820.225" y1="890.489" x2="848.63" y2="1824.21" gradientUnits="userSpaceOnUse">
<stop stop-color="#D63257"/>
<stop offset="0.369792" stop-color="#4726D9"/>
<stop offset="0.692708" stop-color="#2F1F7A"/>
<stop offset="1" stop-color="#008F76"/>
</linearGradient>
<radialGradient id="paint3_radial_1249_20424" cx="0" cy="0" r="1" gradientUnits="userSpaceOnUse" gradientTransform="translate(960 598) rotate(90) scale(598 706)">
<stop stop-color="#1A1A22"/>
<stop offset="1" stop-color="#1A1A22" stop-opacity="0"/>
</radialGradient>
<clipPath id="clip0_1249_20424">
<rect width="1920" height="1080" fill="white"/>
</clipPath>
</defs>
</svg>
