<svg width="34" height="34" viewBox="0 0 34 34" fill="none" xmlns="http://www.w3.org/2000/svg">
<path d="M17.0014 1.25V32.7498M15.1542 2.22593L1.63982 22.0476C1.46246 22.3071 1.34183 22.6011 1.2858 22.9104C1.22977 23.2197 1.2396 23.5373 1.31465 23.8425C1.38969 24.1477 1.52827 24.4337 1.72133 24.6817C1.9144 24.9298 2.1576 25.1343 2.43507 25.282L15.9467 32.4868C16.2704 32.6596 16.6317 32.75 16.9986 32.75C17.3655 32.75 17.7268 32.6596 18.0505 32.4868L31.5649 25.2792C31.8424 25.1315 32.0856 24.9269 32.2787 24.6789C32.4717 24.4309 32.6103 24.1449 32.6854 23.8397C32.7604 23.5345 32.7702 23.2168 32.7142 22.9076C32.6582 22.5983 32.5375 22.3043 32.3602 22.0448L18.8486 2.22593C18.6434 1.92517 18.3679 1.67906 18.046 1.50898C17.7241 1.3389 17.3655 1.25 17.0014 1.25C16.6373 1.25 16.2787 1.3389 15.9568 1.50898C15.6349 1.67906 15.3594 1.92517 15.1542 2.22593Z" stroke="url(#paint0_linear_2082_1012)" stroke-width="2" stroke-linecap="round" stroke-linejoin="round"/>
<defs>
<linearGradient id="paint0_linear_2082_1012" x1="17" y1="1.25" x2="17" y2="32.75" gradientUnits="userSpaceOnUse">
<stop stop-color="#F90B6D"/>
<stop offset="0.1875" stop-color="#F4712D"/>
<stop offset="0.401042" stop-color="#EDEF2C"/>
<stop offset="0.671875" stop-color="#87F083"/>
<stop offset="1" stop-color="#26F0D6"/>
</linearGradient>
</defs>
</svg>
